…
options(parallelly.fork.enable = TRUE, future.rng.onMisuse = "ignore")
library(furrr); plan(multicore)
vars <- c("sst", "anom", "err", "ice")
dslist <- future_map_dfr(s3files, arrayrefs:::getrefs, vars, reader_options = ro)

arrow::write_parquet(dslist, "examples/oisst.nc.parquet")
```

That took a couple of minutes, no dask problems and no need for concurrent.futures (this is very light on chunks though, only one chunk per file). 
Obviously we wasted storage space with the url and the varname and the index, but we don't have to navigate complex object trees this way. It's a balance. 

```
dslist
# A tibble: 63,688 × 5
   path                                              offset length index varname
   <chr>                                              <int>  <int> <chr> <chr>
 1 s3://idea-10.7289-v5sq8xb5/www.ncei.noaa.gov/dat… 1.03e6 683590 0.0.… sst
 2 s3://idea-10.7289-v5sq8xb5/www.ncei.noaa.gov/dat… 4.77e4 684063 0.0.… anom
 3 s3://idea-10.7289-v5sq8xb5/www.ncei.noaa.gov/dat… 7.32e5 222214 0.0.… err
 4 s3://idea-10.7289-v5sq8xb5/www.ncei.noaa.gov/dat… 9.54e5  70081 0.0.… ice
 5 s3://idea-10.7289-v5sq8xb5/www.ncei.noaa.gov/dat… 1.03e6 684863 0.0.… sst
 6 s3://idea-10.7289-v5sq8xb5/www.ncei.noaa.gov/dat… 4.77e4 686733 0.0.… anom
 7 s3://idea-10.7289-v5sq8xb5/www.ncei.noaa.gov/dat… 7.34e5 223997 0.0.… err
 8 s3://idea-10.7289-v5sq8xb5/www.ncei.noaa.gov/dat… 9.58e5  71560 0.0.… ice
 9 s3://idea-10.7289-v5sq8xb5/www.ncei.noaa.gov/dat… 1.03e6 683768 0.0.… sst
10 s3://idea-10.7289-v5sq8xb5/www.ncei.noaa.gov/dat… 4.77e4 685793 0.0.… anom
# ℹ 63,678 more rows
# ℹ Use `print(n = ...)` to see more rows
…
